{
    "KPlugin": {
        "Description": "Configure Internal Browser Component",
        "Description[ar]": "اضبط مكوّن المتصفّح الدّاخليّ",
        "Description[az]": "Daxili bələdçi komponentlrini tənzimləyin",
        "Description[bg]": "Настройване на вградения браузър",
        "Description[ca@valencia]": "Configura el component del navegador intern",
        "Description[ca]": "Configura el component del navegador intern",
        "Description[cs]": "Nastavení komponenty interního prohlížeče",
        "Description[de]": "Interne Browser-Komponente einrichten",
        "Description[en_GB]": "Configure Internal Browser Component",
        "Description[es]": "Configurar el componente navegador interno",
        "Description[eu]": "Konfiguratu barneko arakatzaile osagaia",
        "Description[fi]": "Sisäisen selainosan asetukset",
        "Description[fr]": "Configurer le composant internet de navigation",
        "Description[hu]": "A belső böngészőkomponens beállítása",
        "Description[ia]": "Configura componente interne de navigator",
        "Description[it]": "Configura il componente interno di navigazione",
        "Description[ka]": "ბრაუზერის კომპონენტის მორგება",
        "Description[ko]": "내장 탐색기 구성 요수 설정",
        "Description[nl]": "Interne browsercomponent instellen",
        "Description[pl]": "Ustawienia wewnętrznej przeglądarki",
        "Description[pt]": "Configurar a Componente de Navegação Interna",
        "Description[pt_BR]": "Configurar o componente de navegação interna",
        "Description[ru]": "Компонент настройки браузера",
        "Description[sk]": "Nastavenie komponentu interného prehliadača",
        "Description[sl]": "Nastavi vgrajeni sestavni del za brskanje",
        "Description[sv]": "Anpassa intern webbläsningskomponent",
        "Description[tr]": "İç Tarayıcı Bileşenini Yapılandır",
        "Description[uk]": "Налаштування вбудованого компонента переглядача",
        "Description[x-test]": "xxConfigure Internal Browser Componentxx",
        "Description[zh_CN]": "配置内部浏览器组件",
        "Icon": "konqueror",
        "Name": "Browser",
        "Name[ar]": "المتصفّح",
        "Name[az]": "Veb Bələdçi",
        "Name[bg]": "Браузър",
        "Name[bs]": "Pregledač",
        "Name[ca@valencia]": "Navegador",
        "Name[ca]": "Navegador",
        "Name[cs]": "Prohlížeč",
        "Name[da]": "Browser",
        "Name[de]": "Browser",
        "Name[el]": "Περιηγητής",
        "Name[en_GB]": "Browser",
        "Name[es]": "Navegador",
        "Name[et]": "Sirvija",
        "Name[eu]": "Arakatzailea",
        "Name[fi]": "Selain",
        "Name[fr]": "Navigateur",
        "Name[ga]": "Brabhsálaí",
        "Name[gl]": "Navegador",
        "Name[hr]": "Preglednik",
        "Name[hu]": "Böngésző",
        "Name[ia]": "Navigator",
        "Name[it]": "Navigatore",
        "Name[ja]": "ブラウザ",
        "Name[ka]": "ბრაუზერი",
        "Name[kk]": "Шолғышы",
        "Name[km]": "កម្មវិធី​រុករក",
        "Name[ko]": "탐색기",
        "Name[lt]": "Naršyklė",
        "Name[lv]": "Pārlūks",
        "Name[mai]": "ब्राउज़र",
        "Name[mr]": "ब्राऊजर",
        "Name[nb]": "Nettleser",
        "Name[nds]": "Kieker",
        "Name[nl]": "Browser",
        "Name[nn]": "Nettlesar",
        "Name[pa]": "ਬਰਾਊਜ਼ਰ",
        "Name[pl]": "Przeglądarka",
        "Name[pt]": "Navegador",
        "Name[pt_BR]": "Navegador",
        "Name[ro]": "Navigator",
        "Name[ru]": "Просмотр",
        "Name[sk]": "Prehliadač",
        "Name[sl]": "Brskalnik",
        "Name[sq]": "Shfletuesi",
        "Name[sr@ijekavian]": "Прегледач",
        "Name[sr@ijekavianlatin]": "Pregledač",
        "Name[sr@latin]": "Pregledač",
        "Name[sr]": "Прегледач",
        "Name[sv]": "Webbläsare",
        "Name[th]": "เบราเซอร์",
        "Name[tr]": "Tarayıcı",
        "Name[ug]": "توركۆرگۈ",
        "Name[uk]": "Переглядач",
        "Name[wa]": "Betchteu",
        "Name[x-test]": "xxBrowserxx",
        "Name[zh_CN]": "浏览器",
        "Name[zh_TW]": "瀏覽器",
        "ServiceTypes": [
            "KCModule"
        ]
    },
    "X-DocPath": "akregator/browser-tab.html",
    "X-KDE-Weight": 400
}
