{
    "KPlugin": {
        "Description": "Configure Plugins",
        "Description[ar]": "اضبط الملحقات",
        "Description[az]": "Qoşmaları tənzimləyin",
        "Description[bg]": "Настройване на приставки",
        "Description[ca@valencia]": "Configura els connectors",
        "Description[ca]": "Configura els connectors",
        "Description[cs]": "Nastavit zásuvné moduly",
        "Description[de]": "Module einrichten",
        "Description[en_GB]": "Configure Plugins",
        "Description[es]": "Configurar complementos",
        "Description[eu]": "Konfiguratu pluginak",
        "Description[fi]": "Liitännäisasetukset",
        "Description[fr]": "Configurer les modules externes",
        "Description[hu]": "Bővítmények beállítása",
        "Description[ia]": "Configura Plug-ins",
        "Description[it]": "Configura le estensioni",
        "Description[ka]": "დამატებების მორგება",
        "Description[ko]": "플러그인 설정",
        "Description[nl]": "Plugins configureren",
        "Description[pl]": "Ustawienia wtyczek",
        "Description[pt]": "Configurar os 'Plugins'",
        "Description[pt_BR]": "Configurar plugins",
        "Description[ru]": "Настройка подключаемых модулей",
        "Description[sk]": "Nastaviť pluginy",
        "Description[sl]": "Nastavi vstavke",
        "Description[sv]": "Anpassa insticksprogram",
        "Description[tr]": "Eklentileri Yapılandır",
        "Description[uk]": "Налаштовування додатків",
        "Description[x-test]": "xxConfigure Pluginsxx",
        "Description[zh_CN]": "配置插件",
        "Icon": "preferences-plugin",
        "Name": "Plugins",
        "Name[af]": "Inprop modules",
        "Name[ar]": "الملحقات",
        "Name[az]": "Qoşmalar",
        "Name[bg]": "Приставки",
        "Name[br]": "Lugantoù",
        "Name[bs]": "Dodaci",
        "Name[ca@valencia]": "Connectors",
        "Name[ca]": "Connectors",
        "Name[cs]": "Moduly",
        "Name[cy]": "Ategion",
        "Name[da]": "Plugin",
        "Name[de]": "Module",
        "Name[el]": "Πρόσθετα",
        "Name[en_GB]": "Plugins",
        "Name[eo]": "Kromaĵoj",
        "Name[es]": "Complementos",
        "Name[et]": "Pluginad",
        "Name[eu]": "Plugin-ak",
        "Name[fa]": "وصله‌ها",
        "Name[fi]": "Liitännäiset",
        "Name[fr]": "Modules externes",
        "Name[fy]": "Plugins",
        "Name[ga]": "Breiseáin",
        "Name[gl]": "Complementos",
        "Name[he]": "תוספים",
        "Name[hu]": "Bővítőmodulok",
        "Name[ia]": "Plug-ins",
        "Name[is]": "Íforrit",
        "Name[it]": "Estensioni",
        "Name[ja]": "プラグイン",
        "Name[ka]": "დამატებები",
        "Name[kk]": "Плагин модульдері",
        "Name[km]": "កម្មវិធី​ជំនួយ",
        "Name[ko]": "플러그인",
        "Name[lt]": "Papildiniai",
        "Name[lv]": "Spraudņi",
        "Name[mai]": "प्लगिन",
        "Name[mk]": "Приклучоци",
        "Name[mr]": "प्लगइन्स",
        "Name[ms]": "Plugin",
        "Name[nb]": "Programtillegg",
        "Name[nds]": "Modulen",
        "Name[ne]": "प्लगइन",
        "Name[nl]": "Plug-ins",
        "Name[nn]": "Programtillegg",
        "Name[pa]": "ਪਲੱਗਇਨਾਂ",
        "Name[pl]": "Wtyczki",
        "Name[pt]": "'Plugins'",
        "Name[pt_BR]": "Plugins",
        "Name[ro]": "Extensii",
        "Name[ru]": "Модули",
        "Name[se]": "Lassemoduvllat",
        "Name[sk]": "Moduly",
        "Name[sl]": "Vstavki",
        "Name[sr@ijekavian]": "Прикључци",
        "Name[sr@ijekavianlatin]": "Priključci",
        "Name[sr@latin]": "Priključci",
        "Name[sr]": "Прикључци",
        "Name[sv]": "Insticksprogram",
        "Name[ta]": "சொருகுப்பொருள்கள்",
        "Name[th]": "โปรแกรมเสริม",
        "Name[tr]": "Eklentiler",
        "Name[ug]": "قىستۇرما",
        "Name[uk]": "Додатки",
        "Name[uz@cyrillic]": "Плагинлар",
        "Name[uz]": "Plaginlar",
        "Name[wa]": "Tchôkes-divins",
        "Name[x-test]": "xxPluginsxx",
        "Name[zh_CN]": "插件",
        "Name[zh_TW]": "外掛程式",
        "ServiceTypes": [
            "KCModule"
        ]
    },
    "X-KDE-Weight": 600
}
